{
    "DocPath": "kcontrol/wacomtablet/index.html",
    "KPlugin": {
        "Description": "Wacom Tablet Settings",
        "Description[ca@valencia]": "Configuració de les tauletes Wacom",
        "Description[ca]": "Configuració de les tauletes Wacom",
        "Description[es]": "Preferencias de la tableta Wacom",
        "Description[eu]": "Wacom Tabletaren ezarpenak",
        "Description[fr]": "Configuration pour les tablettes « Wacom »",
        "Description[it]": "Impostazioni delle tavolette Wacom",
        "Description[ka]": "Wacom -ის ტაბლეტის მორგება",
        "Description[nl]": "Instellingen van Wacom tablet",
        "Description[pt]": "Configuração da Tablete Wacom",
        "Description[sl]": "Nastavitve tablice Wacom",
        "Description[tr]": "Wacom Tablet Ayarları",
        "Description[uk]": "Параметри планшетів Wacom",
        "Description[x-test]": "xxWacom Tablet Settingsxx",
        "Description[zh_CN]": "Wacom 数位板设置",
        "Icon": "preferences-desktop-tablet",
        "Name": "Graphic Tablet",
        "Name[ar]": "لوحيّ رسم",
        "Name[bs]": "Grafički tablet",
        "Name[ca@valencia]": "Tauleta gràfica",
        "Name[ca]": "Tauleta gràfica",
        "Name[cs]": "Grafický tablet",
        "Name[da]": "Grafiktegneplade",
        "Name[de]": "Grafiktablett",
        "Name[el]": "Γραφικό πινάκιο",
        "Name[en_GB]": "Graphic Tablet",
        "Name[es]": "Tableta gráfica",
        "Name[et]": "Graafikalaud",
        "Name[eu]": "Tableta grafikoa",
        "Name[fi]": "Piirtopöytä",
        "Name[fr]": "Tablette graphique",
        "Name[gl]": "Tableta gráfica",
        "Name[hu]": "Digitális rajztábla",
        "Name[ia]": "Tabletta Graphic",
        "Name[id]": "Tablet Grafik",
        "Name[it]": "Tavoletta grafica",
        "Name[ja]": "グラフィックタブレット",
        "Name[ka]": "გრაფიკული ტაბლეტი",
        "Name[kk]": "Графикалық планшет",
        "Name[km]": "ក្រាហ្វិក​របស់​ Tablet​",
        "Name[ko]": "그래픽 태블릿",
        "Name[lt]": "Grafinė planšetė",
        "Name[mr]": "ग्राफिक टॅब्लेट",
        "Name[nb]": "Tegneplate",
        "Name[nds]": "Grafiktablettfehler",
        "Name[nl]": "Grafisch tablet",
        "Name[nn]": "Teikneplate",
        "Name[pa]": "ਗਰਾਫਿਕਸ ਟੈਬਲੇਟ",
        "Name[pl]": "Tablet graficzny",
        "Name[pt]": "Tablete Gráfica",
        "Name[pt_BR]": "Mesa digitalizadora",
        "Name[ro]": "Planșetă grafică",
        "Name[ru]": "Графический планшет",
        "Name[sk]": "Grafický tablet",
        "Name[sl]": "Grafična tablica",
        "Name[sv]": "Grafisk ritplatta",
        "Name[th]": "แท็บเล็ตกราฟิก",
        "Name[tr]": "Grafik Tablet",
        "Name[ug]": "گرافىكىلىق سەزگۈر تاختا",
        "Name[uk]": "Графічний планшет",
        "Name[x-test]": "xxGraphic Tabletxx",
        "Name[zh_CN]": "数位板",
        "Name[zh_TW]": "圖形平板裝置"
    },
    "X-KDE-Keywords": "Tablet,Input Devices,Wacom,Stylus",
    "X-KDE-Keywords[ar]": "Tablet,Input Devices,Wacom,Stylus,لوحي,أجهزة دخل,أجهزة إدخال,اجهزة ادخال,واكُم,واكم,واكوم,قلم تأشير,قلم تاشير",
    "X-KDE-Keywords[bs]": "Tablet,Ulazni uređaji,Wacom,Stylus",
    "X-KDE-Keywords[ca@valencia]": "Tauleta,Dispositius d'entrada,Wacom,Llapis",
    "X-KDE-Keywords[ca]": "Tauleta,Dispositius d'entrada,Wacom,Llapis",
    "X-KDE-Keywords[cs]": "Tablet,Vstupní zařízení,Wacom,Stylus",
    "X-KDE-Keywords[da]": "Tablet,input-enheder,Wacom,stylus,tegneplade",
    "X-KDE-Keywords[de]": "Tablett,Eingabegeräte,Stift",
    "X-KDE-Keywords[el]": "Πινάκιο,συσκευές εισόδου,Wacom,γραφίδα",
    "X-KDE-Keywords[en_GB]": "Tablet,Input Devices,Wacom,Stylus",
    "X-KDE-Keywords[es]": "Tablet,Dispositivos de entrada,Wacom,Stylus",
    "X-KDE-Keywords[et]": "tahvel,tablet,laud,graafikalaud,sisendseadmed,wacom,stilus",
    "X-KDE-Keywords[eu]": "Tablet,Sarrerako gailuak,Wacom,Arkatza",
    "X-KDE-Keywords[fi]": "Tablet,input devices,piirtopöytä,syöttölaite,Wacom,Stylus",
    "X-KDE-Keywords[fr]": "Tablette, périphériques d'entrée, Wacom, stylet",
    "X-KDE-Keywords[gl]": "Tableta,Dispositivos de entrada,Wacom,Stylus",
    "X-KDE-Keywords[hu]": "Rajztábla,Beviteli eszközök,Wacom,Stylus",
    "X-KDE-Keywords[ia]": "Tabletta, Dispositivos de Entrata,Wacom,Stilo",
    "X-KDE-Keywords[id]": "Tablet,Peranti Input,Wacom,Stylus",
    "X-KDE-Keywords[it]": "Tavoletta,Dispositivo d'ingresso,Wacom,Pennino",
    "X-KDE-Keywords[ka]": "Tablet,Input Devices,Wacom,Stylus",
    "X-KDE-Keywords[kk]": "Tablet,Input Devices,Wacom,Stylus",
    "X-KDE-Keywords[km]": "Tablet,Input Devices,Wacom,Stylus",
    "X-KDE-Keywords[ko]": "Tablet,Input Devices,Wacom,Stylus,태블릿,타블렛,입력 장치,와콤,스타일러스,펜",
    "X-KDE-Keywords[lt]": "Planšetė,įvesties įrenginiai,Rašiklis",
    "X-KDE-Keywords[mr]": "टॅब्लेट,इनपुट साधने,वेकॉम,स्टाइलस",
    "X-KDE-Keywords[nb]": "Tablet,skriveplate,inndata-enheter,Wacom,penn",
    "X-KDE-Keywords[nds]": "Tablett,Ingaav-Reedschappen,Wacom,Stylus,Stift",
    "X-KDE-Keywords[nl]": "Tablet,invoerapparaten,Wacom,stylus",
    "X-KDE-Keywords[nn]": "teikneplate,skriveplate,inneiningar,wacom,penn",
    "X-KDE-Keywords[pl]": "Tablet,Urządzenia wejściowe,Wacom,Rysik",
    "X-KDE-Keywords[pt]": "Tablete,Dispositivos de Entrada,Wacom,Caneta",
    "X-KDE-Keywords[pt_BR]": "Tablet,Dispositivos de entrada,Wacom,Stylus,Mesa digitalizadora",
    "X-KDE-Keywords[ru]": "Tablet,Input Devices,Wacom,Stylus,планшет,устройства ввода,стилус",
    "X-KDE-Keywords[sk]": "Tablet,Vstupné zariadenia,Wacom,Stylus",
    "X-KDE-Keywords[sl]": "Tablica,naprave za vnos,wacom,stylus",
    "X-KDE-Keywords[sv]": "Ritplatta,Inmatning,Enheter,Wacom,Penna",
    "X-KDE-Keywords[tr]": "Tablet,Girdi Aygıtları,Wacom,Stylus",
    "X-KDE-Keywords[uk]": "Tablet,Input Devices,Wacom,Stylus,планшет,введення,малювання,стило,перо",
    "X-KDE-Keywords[x-test]": "xxTabletxx,xxInput Devicesxx,xxWacomxx,xxStylusxx",
    "X-KDE-Keywords[zh_CN]": "Tablet,Input Devices,Wacom,Stylus,数位板,输入设备,压感笔",
    "X-KDE-Keywords[zh_TW]": "Tablet,Input Devices,Wacom,Stylus",
    "X-KDE-OnlyShowOnQtPlatforms": [
        "xcb"
    ],
    "X-KDE-ParentApp": "kcontrol",
    "X-KDE-System-Settings-Parent-Category": "input-devices"
}
